<?xml version="1.0" encoding="UTF-8" standalone="no"?>
<svg
   xmlns:dc="http://purl.org/dc/elements/1.1/"
   xmlns:cc="http://creativecommons.org/ns#"
   xmlns:rdf="http://www.w3.org/1999/02/22-rdf-syntax-ns#"
   xmlns:svg="http://www.w3.org/2000/svg"
   xmlns="http://www.w3.org/2000/svg"
   xmlns:sodipodi="http://sodipodi.sourceforge.net/DTD/sodipodi-0.dtd"
   xmlns:inkscape="http://www.inkscape.org/namespaces/inkscape"
   width="1536"
   height="1536"
   version="1.1"
   id="svg4"
   sodipodi:docname="bell.svg"
   inkscape:version="0.92.3 (2405546, 2018-03-11)">
  <metadata
     id="metadata10">
    <rdf:RDF>
      <cc:Work
         rdf:about="">
        <dc:format>image/svg+xml</dc:format>
        <dc:type
           rdf:resource="http://purl.org/dc/dcmitype/StillImage" />
      </cc:Work>
    </rdf:RDF>
  </metadata>
  <defs
     id="defs8" />
  <sodipodi:namedview
     pagecolor="#ffffff"
     bordercolor="#666666"
     borderopacity="1"
     objecttolerance="10"
     gridtolerance="10"
     guidetolerance="10"
     inkscape:pageopacity="0"
     inkscape:pageshadow="2"
     inkscape:window-width="1366"
     inkscape:window-height="719"
     id="namedview6"
     showgrid="false"
     inkscape:zoom="0.15364583"
     inkscape:cx="-107.38985"
     inkscape:cy="741.96609"
     inkscape:window-x="0"
     inkscape:window-y="0"
     inkscape:window-maximized="1"
     inkscape:current-layer="svg4" />
  <path
     d="m 781.27771,1453.8932 c 0,-7.6976 -5.98697,-13.6845 -13.68449,-13.6845 -67.56714,0 -123.16036,-55.5932 -123.16036,-123.1604 0,-7.6975 -5.98697,-13.6845 -13.68449,-13.6845 -7.69752,0 -13.68449,5.987 -13.68449,13.6845 0,82.9622 67.56715,150.5294 150.52934,150.5294 7.69752,0 13.68449,-5.9871 13.68449,-13.6845 z M 211.66101,1207.5724 H 1323.5254 c -153.0952,-172.7666 -227.5045,-407.11341 -227.5045,-711.59321 0,-110.33115 -104.34424,-273.68969 -328.42768,-273.68969 -224.08344,0 -328.42764,163.35854 -328.42764,273.68969 0,304.4798 -74.40938,538.82661 -227.50457,711.59321 z m 1267.52549,0 c 0,59.8697 -49.6064,109.4759 -109.476,109.4759 H 986.54498 c 0,120.5946 -98.35723,218.9517 -218.95176,218.9517 -120.59453,0 -218.95177,-98.3571 -218.95177,-218.9517 H 165.47588 C 105.60626,1317.0483 56,1267.4421 56,1207.5724 c 126.58149,-106.91 273.6897,-298.49287 273.6897,-711.59321 0,-164.21382 135.98957,-343.82268 362.63885,-377.17861 -4.2764,-10.26337 -6.84225,-21.382007 -6.84225,-33.355938 0,-45.329859 36.77706,-82.1069031 82.10692,-82.1069031 45.32986,0 82.10691,36.7770441 82.10691,82.1069031 0,11.973931 -2.56584,23.092568 -6.84224,33.355938 226.64931,33.35593 362.63891,212.96479 362.63891,377.17861 0,413.10034 147.1082,604.68321 273.6897,711.59321 z"
     id="path2"
     inkscape:connector-curvature="0"
     style="stroke-width:0.85528034" />
</svg>
